Heterogeneity & Demographic Analysis • heemod
…
Population characteristics

The characteristics of the population are input from a table, with
one column per parameter and one row per individual. Those may be for
example the characteristics of the indiviuals included in the original
trial data.

For this example we will use the characteristics of 100 individuals,
with varying sex and age, specified in the data frame
tab_indiv:

tab_indiv

## # A tibble: 100 × 2
##      age   sex
##    <dbl> <int>
##  1    73     1
##  2    63     1
##  3    65     0
##  4    52     0
##  5    55     0
##  6    58     0
##  7    67     0
##  8    69     0
##  9    70     1
## 10    50     0
## # ℹ 90 more rows
…
Weighted results

Weights can be used in the analysis by including an optional column
.weights in the new data to specify the respective weights
of each strata in the target population.

tab_indiv_w

## # A tibble: 100 × 3
##      age   sex .weights
##    <dbl> <int>    <dbl>
##  1    66     0    0.912
##  2    57     0    0.455
##  3    67     1    0.268
##  4    54     1    0.794
##  5    70     0    0.905
##  6    56     1    0.474
##  7    58     0    0.245
##  8    73     0    0.268
##  9    65     1    0.745
## 10    55     1    0.740
## # ℹ 90 more rows
…
